Introduction to the manipulation of tidy data · Dealing with Data
…
head(gapminder)
View(gapminder)

small tip: you can create handy “sections” in your R code within R studio by clicking Code > Insert section. That only works when you are in a .R file

There are Five basic functions for manipulating datasets. These are the five “verbs” of dplyr, and together you can express very sophisticated data transformations with them.

Reordering data: arrange

The simplest operation we can do to a dataset is to change the sequence of the rows. We can do this easily with arrange from dplyr.

arrange(gapminder, year)

## # A tibble: 1,704 × 6
##        country continent  year lifeExp      pop  gdpPercap
##         <fctr>    <fctr> <int>   <dbl>    <int>      <dbl>
## 1  Afghanistan      Asia  1952  28.801  8425333   779.4453
## 2      Albania    Europe  1952  55.230  1282697  1601.0561
## 3      Algeria    Africa  1952  43.077  9279525  2449.0082
## 4       Angola    Africa  1952  30.015  4232095  3520.6103
## 5    Argentina  Americas  1952  62.485 17876956  5911.3151
## 6    Australia   Oceania  1952  69.120  8691212 10039.5956
## 7      Austria    Europe  1952  66.800  6927772  6137.0765
## 8      Bahrain      Asia  1952  50.939   120447  9867.0848
## 9   Bangladesh      Asia  1952  37.484 46886859   684.2442
## 10     Belgium    Europe  1952  68.000  8730405  8343.1051
## # ... with 1,694 more rows

Reducing rows and columns: select() and filter()

You can select columns based on their names. You can also indicate which columns you do not want. You can even select by names.

select(gapminder, continent, year, lifeExp)

## # A tibble: 1,704 × 3
##    continent  year lifeExp
##       <fctr> <int>   <dbl>
## 1       Asia  1952  28.801
## 2       Asia  1957  30.332
## 3       Asia  1962  31.997
## 4       Asia  1967  34.020
## 5       Asia  1972  36.088
## 6       Asia  1977  38.438
## 7       Asia  1982  39.854
## 8       Asia  1987  40.822
## 9       Asia  1992  41.674
## 10      Asia  1997  41.763
## # ... with 1,694 more rows

## remove with -
select(gapminder, -continent)

## # A tibble: 1,704 × 5
##        country  year lifeExp      pop gdpPercap
##         <fctr> <int>   <dbl>    <int>     <dbl>
## 1  Afghanistan  1952  28.801  8425333  779.4453
## 2  Afghanistan  1957  30.332  9240934  820.8530
## 3  Afghanistan  1962  31.997 10267083  853.1007
## 4  Afghanistan  1967  34.020 11537966  836.1971
## 5  Afghanistan  1972  36.088 13079460  739.9811
## 6  Afghanistan  1977  38.438 14880372  786.1134
## 7  Afghanistan  1982  39.854 12881816  978.0114
## 8  Afghanistan  1987  40.822 13867957  852.3959
## 9  Afghanistan  1992  41.674 16317921  649.3414
## 10 Afghanistan  1997  41.763 22227415  635.3414
## # ... with 1,694 more rows

## remove by range
select(gapminder, lifeExp:gdpPercap)

## # A tibble: 1,704 × 3
##    lifeExp      pop gdpPercap
##      <dbl>    <int>     <dbl>
## 1   28.801  8425333  779.4453
## 2   30.332  9240934  820.8530
## 3   31.997 10267083  853.1007
## 4   34.020 11537966  836.1971
## 5   36.088 13079460  739.9811
## 6   38.438 14880372  786.1134
## 7   39.854 12881816  978.0114
## 8   40.822 13867957  852.3959
## 9   41.674 16317921  649.3414
## 10  41.763 22227415  635.3414
## # ... with 1,694 more rows

There are other ways of selecting columns. See a complete list at ?select

Just as select() reduces the number of columns, filter() reduces the number of rows:

filter(gapminder, year > 1983)

## # A tibble: 710 × 6
##        country continent  year lifeExp      pop gdpPercap
##         <fctr>    <fctr> <int>   <dbl>    <int>     <dbl>
## 1  Afghanistan      Asia  1987  40.822 13867957  852.3959
## 2  Afghanistan      Asia  1992  41.674 16317921  649.3414
## 3  Afghanistan      Asia  1997  41.763 22227415  635.3414
## 4  Afghanistan      Asia  2002  42.129 25268405  726.7341
## 5  Afghanistan      Asia  2007  43.828 31889923  974.5803
## 6      Albania    Europe  1987  72.000  3075321 3738.9327
## 7      Albania    Europe  1992  71.581  3326498 2497.4379
## 8      Albania    Europe  1997  72.950  3428038 3193.0546
## 9      Albania    Europe  2002  75.651  3508512 4604.2117
## 10     Albania    Europe  2007  76.423  3600523 5937.0295
## # ... with 700 more rows

## before 1970
filter(gapminder, year < 1970)

## # A tibble: 568 × 6
##        country continent  year lifeExp      pop gdpPercap
##         <fctr>    <fctr> <int>   <dbl>    <int>     <dbl>
## 1  Afghanistan      Asia  1952  28.801  8425333  779.4453
## 2  Afghanistan      Asia  1957  30.332  9240934  820.8530
## 3  Afghanistan      Asia  1962  31.997 10267083  853.1007
## 4  Afghanistan      Asia  1967  34.020 11537966  836.1971
## 5      Albania    Europe  1952  55.230  1282697 1601.0561
## 6      Albania    Europe  1957  59.280  1476505 1942.2842
## 7      Albania    Europe  1962  64.820  1728137 2312.8890
## 8      Albania    Europe  1967  66.220  1984060 2760.1969
## 9      Algeria    Africa  1952  43.077  9279525 2449.0082
## 10     Algeria    Africa  1957  45.685 10270856 3013.9760
## # ... with 558 more rows

filter(gapminder, year > 1970, year < 1990)

## # A tibble: 568 × 6
##        country continent  year lifeExp      pop gdpPercap
##         <fctr>    <fctr> <int>   <dbl>    <int>     <dbl>
## 1  Afghanistan      Asia  1972  36.088 13079460  739.9811
## 2  Afghanistan      Asia  1977  38.438 14880372  786.1134
## 3  Afghanistan      Asia  1982  39.854 12881816  978.0114
## 4  Afghanistan      Asia  1987  40.822 13867957  852.3959
## 5      Albania    Europe  1972  67.690  2263554 3313.4222
## 6      Albania    Europe  1977  68.930  2509048 3533.0039
## 7      Albania    Europe  1982  70.420  2780097 3630.8807
## 8      Albania    Europe  1987  72.000  3075321 3738.9327
## 9      Algeria    Africa  1972  54.518 14760787 4182.6638
## 10     Algeria    Africa  1977  58.014 17152804 4910.4168
## # ... with 558 more rows
…
Here, the first function (rnorm(30)) is on the inside, while the subsequent functions are outside each set of parentheses. This is difficult to read, because it is not like any human language.

The pipe, however, lets us write this sequentially:

rnorm(30) %>% abs %>% mean

from data unto data

All the dplyr functions we just looked at share one common trait: they all take a data.frame as their first argument, and they all return a data.frame as well. This means we can chain them together with the pipe:

gapminder %>% 
  select(continent, country, pop) %>% 
  filter(pop > 1e8)

## # A tibble: 77 × 3
##    continent    country       pop
##       <fctr>     <fctr>     <int>
## 1       Asia Bangladesh 103764241
## 2       Asia Bangladesh 113704579
## 3       Asia Bangladesh 123315288
## 4       Asia Bangladesh 135656790
## 5       Asia Bangladesh 150448339
## 6   Americas     Brazil 100840058
## 7   Americas     Brazil 114313951
## 8   Americas     Brazil 128962939
## 9   Americas     Brazil 142938076
## 10  Americas     Brazil 155975974
## # ... with 67 more rows

## adding a new column
gapminder %>% 
  mutate(total_gdp = pop * gdpPercap)

## # A tibble: 1,704 × 7
##        country continent  year lifeExp      pop gdpPercap   total_gdp
##         <fctr>    <fctr> <int>   <dbl>    <int>     <dbl>       <dbl>
## 1  Afghanistan      Asia  1952  28.801  8425333  779.4453  6567086330
## 2  Afghanistan      Asia  1957  30.332  9240934  820.8530  7585448670
## 3  Afghanistan      Asia  1962  31.997 10267083  853.1007  8758855797
## 4  Afghanistan      Asia  1967  34.020 11537966  836.1971  9648014150
## 5  Afghanistan      Asia  1972  36.088 13079460  739.9811  9678553274
## 6  Afghanistan      Asia  1977  38.438 14880372  786.1134 11697659231
## 7  Afghanistan      Asia  1982  39.854 12881816  978.0114 12598563401
## 8  Afghanistan      Asia  1987  40.822 13867957  852.3959 11820990309
## 9  Afghanistan      Asia  1992  41.674 16317921  649.3414 10595901589
## 10 Afghanistan      Asia  1997  41.763 22227415  635.3414 14121995875
## # ... with 1,694 more rows

## summarize

## what is the average population for an Asian country over all the time studied

gapminder %>% 
  filter(continent == "Asia") %>% 
  group_by(country) %>% 
  summarize(avg_pop = mean(pop))

## # A tibble: 33 × 2
##             country     avg_pop
##              <fctr>       <dbl>
## 1       Afghanistan  15823715.4
## 2           Bahrain    373913.2
## 3        Bangladesh  90755395.3
## 4          Cambodia   8510430.7
## 5             China 958160051.9
## 6  Hong Kong, China   4792259.3
## 7             India 701130739.8
## 8         Indonesia 148322833.3
## 9              Iran  42301706.8
## 10             Iraq  14187495.2
## # ... with 23 more rows
…
## tidyr

gapminder %>% 
  select(country, year, pop) %>% 
  spread(key = year, value = pop)

## # A tibble: 142 × 13
##        country   `1952`   `1957`   `1962`   `1967`   `1972`   `1977`
## *       <fctr>    <int>    <int>    <int>    <int>    <int>    <int>
## 1  Afghanistan  8425333  9240934 10267083 11537966 13079460 14880372
## 2      Albania  1282697  1476505  1728137  1984060  2263554  2509048
## 3      Algeria  9279525 10270856 11000948 12760499 14760787 17152804
## 4       Angola  4232095  4561361  4826015  5247469  5894858  6162675
## 5    Argentina 17876956 19610538 21283783 22934225 24779799 26983828
## 6    Australia  8691212  9712569 10794968 11872264 13177000 14074100
## 7      Austria  6927772  6965860  7129864  7376998  7544201  7568430
## 8      Bahrain   120447   138655   171863   202182   230800   297410
## 9   Bangladesh 46886859 51365468 56839289 62821884 70759295 80428306
## 10     Belgium  8730405  8989111  9218400  9556500  9709100  9821800
## # ... with 132 more rows, and 6 more variables: `1982` <int>,
## #   `1987` <int>, `1992` <int>, `1997` <int>, `2002` <int>, `2007` <int>

year_by_gdp <- gapminder %>% 
  select(country, year, gdpPercap) %>% 
  spread(year, value = gdpPercap)

year_by_gdp %>% 
  gather(key = new_year, value = new_pop, 2:13)

## # A tibble: 1,704 × 3
##        country new_year    new_pop
##         <fctr>    <chr>      <dbl>
## 1  Afghanistan     1952   779.4453
## 2      Albania     1952  1601.0561
## 3      Algeria     1952  2449.0082
## 4       Angola     1952  3520.6103
## 5    Argentina     1952  5911.3151
## 6    Australia     1952 10039.5956
## 7      Austria     1952  6137.0765
## 8      Bahrain     1952  9867.0848
## 9   Bangladesh     1952   684.2442
## 10     Belgium     1952  8343.1051
## # ... with 1,694 more rows

year_by_gdp %>% 
  gather(key = new_year, value = new_pop, `1952`:`2007`)

## # A tibble: 1,704 × 3
##        country new_year    new_pop
##         <fctr>    <chr>      <dbl>
## 1  Afghanistan     1952   779.4453
## 2      Albania     1952  1601.0561
## 3      Algeria     1952  2449.0082
## 4       Angola     1952  3520.6103
## 5    Argentina     1952  5911.3151
## 6    Australia     1952 10039.5956
## 7      Austria     1952  6137.0765
## 8      Bahrain     1952  9867.0848
## 9   Bangladesh     1952   684.2442
## 10     Belgium     1952  8343.1051
## # ... with 1,694 more rows

year_by_gdp %>% 
  gather(key = new_year, value = new_pop, -country)

## # A tibble: 1,704 × 3
##        country new_year    new_pop
##         <fctr>    <chr>      <dbl>
## 1  Afghanistan     1952   779.4453
## 2      Albania     1952  1601.0561
## 3      Algeria     1952  2449.0082
## 4       Angola     1952  3520.6103
## 5    Argentina     1952  5911.3151
## 6    Australia     1952 10039.5956
## 7      Austria     1952  6137.0765
## 8      Bahrain     1952  9867.0848
## 9   Bangladesh     1952   684.2442
## 10     Belgium     1952  8343.1051
## # ... with 1,694 more rows

## scale pop by subtracting the mean for each country
gapminder %>%
  group_by(country) %>% 
  mutate(scale_pop = pop - mean(pop))

## Source: local data frame [1,704 x 7]
## Groups: country [142]
## 
##        country continent  year lifeExp      pop gdpPercap  scale_pop
##         <fctr>    <fctr> <int>   <dbl>    <int>     <dbl>      <dbl>
## 1  Afghanistan      Asia  1952  28.801  8425333  779.4453 -7398382.4
## 2  Afghanistan      Asia  1957  30.332  9240934  820.8530 -6582781.4
## 3  Afghanistan      Asia  1962  31.997 10267083  853.1007 -5556632.4
## 4  Afghanistan      Asia  1967  34.020 11537966  836.1971 -4285749.4
## 5  Afghanistan      Asia  1972  36.088 13079460  739.9811 -2744255.4
## 6  Afghanistan      Asia  1977  38.438 14880372  786.1134  -943343.4
## 7  Afghanistan      Asia  1982  39.854 12881816  978.0114 -2941899.4
## 8  Afghanistan      Asia  1987  40.822 13867957  852.3959 -1955758.4
## 9  Afghanistan      Asia  1992  41.674 16317921  649.3414   494205.6
## 10 Afghanistan      Asia  1997  41.763 22227415  635.3414  6403699.6
## # ... with 1,694 more rows
